^C:\USERS\NICO\DESKTOP\JUEGO\ENGINE\STDAFX.CPP
C:\USERS\NICO\DESKTOP\JUEGO\ENGINE\DEBUG\ENGINE.PCH
C:\USERS\NICO\DESKTOP\JUEGO\ENGINE\DEBUG\VC140.PDB
C:\USERS\NICO\DESKTOP\JUEGO\ENGINE\DEBUG\VC140.IDB
C:\USERS\NICO\DESKTOP\JUEGO\ENGINE\DEBUG\STDAFX.OBJ
^C:\USERS\NICO\DESKTOP\JUEGO\ENGINE\DLLMAIN.CPP
C:\USERS\NICO\DESKTOP\JUEGO\ENGINE\DEBUG\VC140.PDB
C:\USERS\NICO\DESKTOP\JUEGO\ENGINE\DEBUG\VC140.IDB
C:\USERS\NICO\DESKTOP\JUEGO\ENGINE\DEBUG\DLLMAIN.OBJ
^C:\USERS\NICO\DESKTOP\JUEGO\ENGINE\ENGINE.CPP|C:\USERS\NICO\DESKTOP\JUEGO\ENGINE\TESTCLASS.CPP
C:\USERS\NICO\DESKTOP\JUEGO\ENGINE\DEBUG\VC140.PDB
C:\USERS\NICO\DESKTOP\JUEGO\ENGINE\DEBUG\VC140.IDB
C:\USERS\NICO\DESKTOP\JUEGO\ENGINE\DEBUG\ENGINE.OBJ
C:\USERS\NICO\DESKTOP\JUEGO\ENGINE\DEBUG\TESTCLASS.OBJ
^C:\USERS\NICO\DESKTOP\JUEGO\ENGINE\ENGINE.CPP
C:\USERS\NICO\DESKTOP\JUEGO\ENGINE\DEBUG\VC140.PDB
^C:\USERS\NICO\DESKTOP\JUEGO\ENGINE\TESTCLASS.CPP
C:\USERS\NICO\DESKTOP\JUEGO\ENGINE\DEBUG\VC140.PDB
^C:\USERS\NICO\DOCUMENTS\DESARROLLO-ENGINE-IMAGE-CAMPUS\ENGINE\STDAFX.CPP
C:\USERS\NICO\DOCUMENTS\DESARROLLO-ENGINE-IMAGE-CAMPUS\ENGINE\DEBUG\ENGINE.PCH
C:\USERS\NICO\DOCUMENTS\DESARROLLO-ENGINE-IMAGE-CAMPUS\ENGINE\DEBUG\VC140.PDB
C:\USERS\NICO\DOCUMENTS\DESARROLLO-ENGINE-IMAGE-CAMPUS\ENGINE\DEBUG\VC140.IDB
C:\USERS\NICO\DOCUMENTS\DESARROLLO-ENGINE-IMAGE-CAMPUS\ENGINE\DEBUG\STDAFX.OBJ
^C:\USERS\NICO\DOCUMENTS\DESARROLLO-ENGINE-IMAGE-CAMPUS\ENGINE\DLLMAIN.CPP
C:\USERS\NICO\DOCUMENTS\DESARROLLO-ENGINE-IMAGE-CAMPUS\ENGINE\DEBUG\VC140.PDB
C:\USERS\NICO\DOCUMENTS\DESARROLLO-ENGINE-IMAGE-CAMPUS\ENGINE\DEBUG\VC140.IDB
C:\USERS\NICO\DOCUMENTS\DESARROLLO-ENGINE-IMAGE-CAMPUS\ENGINE\DEBUG\DLLMAIN.OBJ
^C:\USERS\NICO\DOCUMENTS\DESARROLLO-ENGINE-IMAGE-CAMPUS\ENGINE\ENGINE.CPP|C:\USERS\NICO\DOCUMENTS\DESARROLLO-ENGINE-IMAGE-CAMPUS\ENGINE\TESTCLASS.CPP
C:\USERS\NICO\DOCUMENTS\DESARROLLO-ENGINE-IMAGE-CAMPUS\ENGINE\DEBUG\VC140.PDB
C:\USERS\NICO\DOCUMENTS\DESARROLLO-ENGINE-IMAGE-CAMPUS\ENGINE\DEBUG\VC140.IDB
C:\USERS\NICO\DOCUMENTS\DESARROLLO-ENGINE-IMAGE-CAMPUS\ENGINE\DEBUG\ENGINE.OBJ
C:\USERS\NICO\DOCUMENTS\DESARROLLO-ENGINE-IMAGE-CAMPUS\ENGINE\DEBUG\TESTCLASS.OBJ
^C:\USERS\NICO\DOCUMENTS\DESARROLLO-ENGINE-IMAGE-CAMPUS\ENGINE\ENGINE.CPP
C:\USERS\NICO\DOCUMENTS\DESARROLLO-ENGINE-IMAGE-CAMPUS\ENGINE\DEBUG\VC140.PDB
^C:\USERS\NICO\DOCUMENTS\DESARROLLO-ENGINE-IMAGE-CAMPUS\ENGINE\TESTCLASS.CPP
C:\USERS\NICO\DOCUMENTS\DESARROLLO-ENGINE-IMAGE-CAMPUS\ENGINE\DEBUG\VC140.PDB
